%YAML 1.1
%TAG !u! tag:unity3d.com,2011:
--- !u!114 &11400000
MonoBehaviour:
  m_ObjectHideFlags: 0
  m_CorrespondingSourceObject: {fileID: 0}
  m_PrefabInstance: {fileID: 0}
  m_PrefabAsset: {fileID: 0}
  m_GameObject: {fileID: 0}
  m_Enabled: 1
  m_EditorHideFlags: 0
  m_Script: {fileID: 11500000, guid: a696b3f2e8b874d4fb3a1e02dc48be5d, type: 3}
  m_Name: RoombaTest
  m_EditorClassIdentifier: 
  characterName: 
  model: {fileID: 5824464606091974612, guid: 22940fd0996693641acb4ecd1cb06d69, type: 3}
  RagdollModel: {fileID: 0}
  modelMaterials: {fileID: 0}
